…
```r
# Converts decimal date to epiweek
q_ne$epiweek = lubridate::epiweek(lubridate::date_decimal(tN$time))
q_ne$epiweek = ifelse(q_ne$epiweek < 4, q_ne$epiweek+53, q_ne$epiweek)
```


Read SGTF data:
```r
sgss_stp_new_43_56_weeks <- readRDS("data/sgss_stp_new_43_56_weeks.rds")
sgss_stp_new_43_56_weeks
```

```
# A tibble: 588 x 15
# Groups:   area, epiweek [588]
   area  epiweek epistop    sgss_s_positive sgss_s_negative total_cases sgss_s_positive~ sgss_s_negative~ total_cases_adj1 regcd  probs
   <chr>   <dbl> <date>               <int>           <int>       <int>            <int>            <int>            <int> <chr>  <dbl>
 1 Bath~      43 2020-10-24             241              13        1101              216               13             1101 E540~ 0.0475
 2 Bath~      44 2020-10-31             323              10        1373              290               10             1373 E540~ 0.126 
 3 Bath~      45 2020-11-07             326              10        1422              269               10             1422 E540~ 0.280 
 4 Bath~      46 2020-11-14             771              30        1611              717               30             1611 E540~ 0.487 
 5 Bath~      47 2020-11-21             505              24        1145              448               24             1145 E540~ 0.679 
 6 Bath~      48 2020-11-28             362              22         760              325               22              760 E540~ 0.816 
 7 Bath~      49 2020-12-05             327              40         755              282               40              755 E540~ 0.902 
 8 Bath~      50 2020-12-12             330             103         808              290              103              808 E540~ 0.951 
 9 Bath~      51 2020-12-19             356             245        1291              317              245             1291 E540~ 0.977 
10 Bath~      52 2020-12-26             422             446        1936              360              446             1936 E540~ 0.990 
# ... with 578 more rows, and 4 more variables: sgss_s_negative_corrected <dbl>, sgss_s_positive_corrected <dbl>,
#   sgss_s_negative_corrected_adj1 <dbl>, sgss_s_positive_corrected_adj1 <dbl>
```
…
